<?xml version="1.0" encoding="UTF-8"?>
<kml xmlns="http://www.opengis.net/kml/2.2">
  <Document>
    <name>Ruta más corta</name>
    <Placemark>
      <name>Ruta más corta</name>
      <LineString>
      <altitudeMode>absolute</altitudeMode>
      <coordinates>
        145.7887, -5.207083
        144.295861, -5.826789
      </coordinates>
      </LineString>
    </Placemark>
  </Document>
</kml>
